{
  "ffmpeg": "/root/ffmpeg/ffmpeg",
  "hwaccel": "True",
  "jobUrl": "",
  "jobFinishUrl": "",
  "jobFailUrl": "",
  "s3Bucket": "",
  "s3AccessKey": "",
  "s3AccessSecret": "",
  "s3ServiceUrl": ""
}